Proyecto1/32a8/log328.vcd
$date
	Sat Oct 23 19:35:05 2021
$end
$version
	Icarus Verilog
$end
$timescale
	1s
$end
$scope module BUF $end
$var wire 1 ! A $end
$var wire 1 " Y $end
$upscope $end
$scope module DFFSR $end
$var wire 1 # C $end
$var wire 1 $ D $end
$var wire 1 % R $end
$var wire 1 & S $end
$var reg 1 ' Q $end
$upscope $end
$scope module testbench_32_8 $end
$var wire 1 ( valid_out_sint $end
$var wire 1 ) valid_out $end
$var wire 1 * valid $end
$var wire 1 + reset $end
$var wire 8 , data_out_sint [7:0] $end
$var wire 8 - data_out [7:0] $end
$var wire 32 . data_in [31:0] $end
$var wire 1 / clk_f $end
$var wire 1 0 clk_4f $end
$var wire 1 1 clk_2f $end
$scope module cond $end
$var wire 1 * valid $end
$var wire 1 + reset $end
$var wire 32 2 data_in [31:0] $end
$var wire 1 0 clk_4f $end
$var reg 8 3 data_out [7:0] $end
$var reg 2 4 selector [1:0] $end
$var reg 1 ) valid_out $end
$upscope $end
$scope module estr $end
$var wire 1 ( valid_out_sint $end
$var wire 1 * valid $end
$var wire 2 5 selector [1:0] $end
$var wire 1 + reset $end
$var wire 8 6 data_out_sint [7:0] $end
$var wire 32 7 data_in [31:0] $end
$var wire 1 0 clk_4f $end
$var wire 1 8 _067_ $end
$var wire 1 9 _066_ $end
$var wire 1 : _065_ $end
$var wire 1 ; _064_ $end
$var wire 1 < _063_ $end
$var wire 1 = _062_ $end
$var wire 1 > _061_ $end
$var wire 1 ? _060_ $end
$var wire 1 @ _059_ $end
$var wire 1 A _058_ $end
$var wire 1 B _057_ $end
$var wire 1 C _056_ $end
$var wire 1 D _055_ $end
$var wire 1 E _054_ $end
$var wire 1 F _053_ $end
$var wire 1 G _052_ $end
$var wire 1 H _051_ $end
$var wire 1 I _050_ $end
$var wire 1 J _049_ $end
$var wire 1 K _048_ $end
$var wire 1 L _047_ $end
$var wire 1 M _046_ $end
$var wire 1 N _045_ $end
$var wire 1 O _044_ $end
$var wire 1 P _043_ $end
$var wire 1 Q _042_ $end
$var wire 1 R _041_ $end
$var wire 1 S _040_ $end
$var wire 1 T _039_ $end
$var wire 1 U _038_ $end
$var wire 1 V _037_ $end
$var wire 1 W _036_ $end
$var wire 1 X _035_ $end
$var wire 1 Y _034_ $end
$var wire 1 Z _033_ $end
$var wire 1 [ _032_ $end
$var wire 1 \ _031_ $end
$var wire 1 ] _030_ $end
$var wire 1 ^ _029_ $end
$var wire 1 _ _028_ $end
$var wire 1 ` _027_ $end
$var wire 1 a _026_ $end
$var wire 1 b _025_ $end
$var wire 1 c _024_ $end
$var wire 1 d _023_ $end
$var wire 1 e _022_ $end
$var wire 1 f _021_ $end
$var wire 1 g _020_ $end
$var wire 1 h _019_ $end
$var wire 1 i _018_ $end
$var wire 1 j _017_ $end
$var wire 1 k _016_ $end
$var wire 1 l _015_ $end
$var wire 1 m _014_ $end
$var wire 1 n _013_ $end
$var wire 1 o _012_ $end
$var wire 1 p _011_ $end
$var wire 1 q _010_ $end
$var wire 1 r _009_ $end
$var wire 1 s _008_ $end
$var wire 1 t _007_ $end
$var wire 1 u _006_ $end
$var wire 1 v _005_ $end
$var wire 1 w _004_ $end
$var wire 1 x _003_ $end
$var wire 1 y _002_ $end
$var wire 2 z _001_ [1:0] $end
$var wire 8 { _000_ [7:0] $end
$scope module _068_ $end
$var wire 1 | A $end
$var wire 1 ] Y $end
$upscope $end
$scope module _069_ $end
$var wire 1 } A $end
$var wire 1 \ Y $end
$upscope $end
$scope module _070_ $end
$var wire 1 [ Y $end
$var wire 1 + B $end
$var wire 1 * A $end
$upscope $end
$scope module _071_ $end
$var wire 1 [ A $end
$var wire 1 y Y $end
$upscope $end
$scope module _072_ $end
$var wire 1 ~ A $end
$var wire 1 \ B $end
$var wire 1 Z Y $end
$upscope $end
$scope module _073_ $end
$var wire 1 !" A $end
$var wire 1 Z B $end
$var wire 1 Y Y $end
$upscope $end
$scope module _074_ $end
$var wire 1 "" A $end
$var wire 1 #" B $end
$var wire 1 X Y $end
$upscope $end
$scope module _075_ $end
$var wire 1 $" A $end
$var wire 1 X B $end
$var wire 1 W Y $end
$upscope $end
$scope module _076_ $end
$var wire 1 Y A $end
$var wire 1 W B $end
$var wire 1 V Y $end
$upscope $end
$scope module _077_ $end
$var wire 1 ] A $end
$var wire 1 %" B $end
$var wire 1 U Y $end
$upscope $end
$scope module _078_ $end
$var wire 1 &" A $end
$var wire 1 U B $end
$var wire 1 T Y $end
$upscope $end
$scope module _079_ $end
$var wire 1 ] A $end
$var wire 1 \ B $end
$var wire 1 S Y $end
$upscope $end
$scope module _080_ $end
$var wire 1 '" A $end
$var wire 1 S B $end
$var wire 1 R Y $end
$upscope $end
$scope module _081_ $end
$var wire 1 T A $end
$var wire 1 R B $end
$var wire 1 Q Y $end
$upscope $end
$scope module _082_ $end
$var wire 1 V A $end
$var wire 1 Q B $end
$var wire 1 P Y $end
$upscope $end
$scope module _083_ $end
$var wire 1 [ A $end
$var wire 1 P B $end
$var wire 1 (" Y $end
$upscope $end
$scope module _084_ $end
$var wire 1 )" A $end
$var wire 1 S B $end
$var wire 1 O Y $end
$upscope $end
$scope module _085_ $end
$var wire 1 *" A $end
$var wire 1 X B $end
$var wire 1 N Y $end
$upscope $end
$scope module _086_ $end
$var wire 1 O A $end
$var wire 1 N B $end
$var wire 1 M Y $end
$upscope $end
$scope module _087_ $end
$var wire 1 +" A $end
$var wire 1 Z B $end
$var wire 1 L Y $end
$upscope $end
$scope module _088_ $end
$var wire 1 ," A $end
$var wire 1 U B $end
$var wire 1 K Y $end
$upscope $end
$scope module _089_ $end
$var wire 1 L A $end
$var wire 1 K B $end
$var wire 1 J Y $end
$upscope $end
$scope module _090_ $end
$var wire 1 M A $end
$var wire 1 J B $end
$var wire 1 I Y $end
$upscope $end
$scope module _091_ $end
$var wire 1 [ A $end
$var wire 1 I B $end
$var wire 1 -" Y $end
$upscope $end
$scope module _092_ $end
$var wire 1 ." A $end
$var wire 1 S B $end
$var wire 1 H Y $end
$upscope $end
$scope module _093_ $end
$var wire 1 /" A $end
$var wire 1 X B $end
$var wire 1 G Y $end
$upscope $end
$scope module _094_ $end
$var wire 1 H A $end
$var wire 1 G B $end
$var wire 1 F Y $end
$upscope $end
$scope module _095_ $end
$var wire 1 0" A $end
$var wire 1 Z B $end
$var wire 1 E Y $end
$upscope $end
$scope module _096_ $end
$var wire 1 1" A $end
$var wire 1 U B $end
$var wire 1 D Y $end
$upscope $end
$scope module _097_ $end
$var wire 1 E A $end
$var wire 1 D B $end
$var wire 1 C Y $end
$upscope $end
$scope module _098_ $end
$var wire 1 F A $end
$var wire 1 C B $end
$var wire 1 B Y $end
$upscope $end
$scope module _099_ $end
$var wire 1 [ A $end
$var wire 1 B B $end
$var wire 1 2" Y $end
$upscope $end
$scope module _100_ $end
$var wire 1 3" A $end
$var wire 1 S B $end
$var wire 1 A Y $end
$upscope $end
$scope module _101_ $end
$var wire 1 4" A $end
$var wire 1 X B $end
$var wire 1 @ Y $end
$upscope $end
$scope module _102_ $end
$var wire 1 A A $end
$var wire 1 @ B $end
$var wire 1 ? Y $end
$upscope $end
$scope module _103_ $end
$var wire 1 5" A $end
$var wire 1 Z B $end
$var wire 1 > Y $end
$upscope $end
$scope module _104_ $end
$var wire 1 6" A $end
$var wire 1 U B $end
$var wire 1 = Y $end
$upscope $end
$scope module _105_ $end
$var wire 1 > A $end
$var wire 1 = B $end
$var wire 1 < Y $end
$upscope $end
$scope module _106_ $end
$var wire 1 ? A $end
$var wire 1 < B $end
$var wire 1 ; Y $end
$upscope $end
$scope module _107_ $end
$var wire 1 [ A $end
$var wire 1 ; B $end
$var wire 1 7" Y $end
$upscope $end
$scope module _108_ $end
$var wire 1 8" A $end
$var wire 1 S B $end
$var wire 1 : Y $end
$upscope $end
$scope module _109_ $end
$var wire 1 9" A $end
$var wire 1 X B $end
$var wire 1 9 Y $end
$upscope $end
$scope module _110_ $end
$var wire 1 : A $end
$var wire 1 9 B $end
$var wire 1 8 Y $end
$upscope $end
$scope module _111_ $end
$var wire 1 :" A $end
$var wire 1 Z B $end
$var wire 1 x Y $end
$upscope $end
$scope module _112_ $end
$var wire 1 ;" A $end
$var wire 1 U B $end
$var wire 1 w Y $end
$upscope $end
$scope module _113_ $end
$var wire 1 x A $end
$var wire 1 w B $end
$var wire 1 v Y $end
$upscope $end
$scope module _114_ $end
$var wire 1 8 A $end
$var wire 1 v B $end
$var wire 1 u Y $end
$upscope $end
$scope module _115_ $end
$var wire 1 [ A $end
$var wire 1 u B $end
$var wire 1 <" Y $end
$upscope $end
$scope module _116_ $end
$var wire 1 =" A $end
$var wire 1 S B $end
$var wire 1 t Y $end
$upscope $end
$scope module _117_ $end
$var wire 1 >" A $end
$var wire 1 X B $end
$var wire 1 s Y $end
$upscope $end
$scope module _118_ $end
$var wire 1 t A $end
$var wire 1 s B $end
$var wire 1 r Y $end
$upscope $end
$scope module _119_ $end
$var wire 1 ?" A $end
$var wire 1 Z B $end
$var wire 1 q Y $end
$upscope $end
$scope module _120_ $end
$var wire 1 @" A $end
$var wire 1 U B $end
$var wire 1 p Y $end
$upscope $end
$scope module _121_ $end
$var wire 1 q A $end
$var wire 1 p B $end
$var wire 1 o Y $end
$upscope $end
$scope module _122_ $end
$var wire 1 r A $end
$var wire 1 o B $end
$var wire 1 n Y $end
$upscope $end
$scope module _123_ $end
$var wire 1 [ A $end
$var wire 1 n B $end
$var wire 1 A" Y $end
$upscope $end
$scope module _124_ $end
$var wire 1 B" A $end
$var wire 1 S B $end
$var wire 1 m Y $end
$upscope $end
$scope module _125_ $end
$var wire 1 C" A $end
$var wire 1 X B $end
$var wire 1 l Y $end
$upscope $end
$scope module _126_ $end
$var wire 1 m A $end
$var wire 1 l B $end
$var wire 1 k Y $end
$upscope $end
$scope module _127_ $end
$var wire 1 D" A $end
$var wire 1 Z B $end
$var wire 1 j Y $end
$upscope $end
$scope module _128_ $end
$var wire 1 E" A $end
$var wire 1 U B $end
$var wire 1 i Y $end
$upscope $end
$scope module _129_ $end
$var wire 1 j A $end
$var wire 1 i B $end
$var wire 1 h Y $end
$upscope $end
$scope module _130_ $end
$var wire 1 k A $end
$var wire 1 h B $end
$var wire 1 g Y $end
$upscope $end
$scope module _131_ $end
$var wire 1 [ A $end
$var wire 1 g B $end
$var wire 1 F" Y $end
$upscope $end
$scope module _132_ $end
$var wire 1 G" A $end
$var wire 1 S B $end
$var wire 1 f Y $end
$upscope $end
$scope module _133_ $end
$var wire 1 H" A $end
$var wire 1 X B $end
$var wire 1 e Y $end
$upscope $end
$scope module _134_ $end
$var wire 1 f A $end
$var wire 1 e B $end
$var wire 1 d Y $end
$upscope $end
$scope module _135_ $end
$var wire 1 I" A $end
$var wire 1 Z B $end
$var wire 1 c Y $end
$upscope $end
$scope module _136_ $end
$var wire 1 J" A $end
$var wire 1 U B $end
$var wire 1 b Y $end
$upscope $end
$scope module _137_ $end
$var wire 1 c A $end
$var wire 1 b B $end
$var wire 1 a Y $end
$upscope $end
$scope module _138_ $end
$var wire 1 d A $end
$var wire 1 a B $end
$var wire 1 ` Y $end
$upscope $end
$scope module _139_ $end
$var wire 1 [ A $end
$var wire 1 ` B $end
$var wire 1 K" Y $end
$upscope $end
$scope module _140_ $end
$var wire 1 L" A $end
$var wire 1 [ B $end
$var wire 1 M" Y $end
$upscope $end
$scope module _141_ $end
$var wire 1 [ A $end
$var wire 1 S B $end
$var wire 1 _ Y $end
$upscope $end
$scope module _142_ $end
$var wire 1 _ A $end
$var wire 1 ^ Y $end
$upscope $end
$scope module _143_ $end
$var wire 1 X A $end
$var wire 1 ^ B $end
$var wire 1 N" Y $end
$upscope $end
$scope module _144_ $end
$var wire 1 O" D $end
$var wire 1 0 C $end
$var reg 1 P" Q $end
$upscope $end
$scope module _145_ $end
$var wire 1 Q" D $end
$var wire 1 0 C $end
$var reg 1 R" Q $end
$upscope $end
$scope module _146_ $end
$var wire 1 S" D $end
$var wire 1 0 C $end
$var reg 1 T" Q $end
$upscope $end
$scope module _147_ $end
$var wire 1 U" D $end
$var wire 1 0 C $end
$var reg 1 V" Q $end
$upscope $end
$scope module _148_ $end
$var wire 1 W" D $end
$var wire 1 0 C $end
$var reg 1 X" Q $end
$upscope $end
$scope module _149_ $end
$var wire 1 Y" D $end
$var wire 1 0 C $end
$var reg 1 Z" Q $end
$upscope $end
$scope module _150_ $end
$var wire 1 [" D $end
$var wire 1 0 C $end
$var reg 1 \" Q $end
$upscope $end
$scope module _151_ $end
$var wire 1 ]" D $end
$var wire 1 0 C $end
$var reg 1 ^" Q $end
$upscope $end
$scope module _152_ $end
$var wire 1 _" D $end
$var wire 1 0 C $end
$var reg 1 `" Q $end
$upscope $end
$scope module _153_ $end
$var wire 1 a" D $end
$var wire 1 0 C $end
$var reg 1 b" Q $end
$upscope $end
$scope module _154_ $end
$var wire 1 y D $end
$var wire 1 0 C $end
$var reg 1 ( Q $end
$upscope $end
$upscope $end
$scope module tester $end
$var wire 8 c" data_out [7:0] $end
$var wire 8 d" data_out_estructural [7:0] $end
$var wire 1 ) valid_out $end
$var wire 1 ( valid_out_estructural $end
$var reg 1 1 clk_2f $end
$var reg 1 0 clk_4f $end
$var reg 1 / clk_f $end
$var reg 32 e" data_in [31:0] $end
$var reg 1 + reset $end
$var reg 1 * valid $end
$upscope $end
$upscope $end
$enddefinitions $end
#0
$dumpvars
b0 e"
bx d"
b0 c"
xb"
0a"
x`"
0_"
x^"
0]"
x\"
0["
xZ"
0Y"
xX"
0W"
xV"
0U"
xT"
0S"
xR"
0Q"
xP"
0O"
0N"
0M"
xL"
0K"
0J"
0I"
0H"
0G"
0F"
0E"
0D"
0C"
0B"
0A"
0@"
0?"
0>"
0="
0<"
0;"
0:"
09"
08"
07"
06"
05"
04"
03"
02"
01"
00"
0/"
0."
0-"
0,"
0+"
0*"
0)"
0("
0'"
0&"
x%"
0$"
x#"
x""
0!"
x~
x}
x|
b0 {
b0 z
0y
1x
1w
0v
1u
1t
1s
0r
1q
1p
0o
1n
1m
1l
0k
1j
1i
0h
1g
1f
1e
0d
1c
1b
0a
1`
0_
1^
x]
x\
1[
xZ
1Y
xX
1W
0V
xU
1T
xS
1R
0Q
1P
1O
1N
0M
1L
1K
0J
1I
1H
1G
0F
1E
1D
0C
1B
1A
1@
0?
1>
1=
0<
1;
1:
19
08
b0 7
bx 6
bx 5
b0 4
b0 3
b0 2
01
10
0/
b0 .
b0 -
bx ,
0+
0*
0)
x(
x'
z&
z%
z$
z#
z"
z!
$end
#1
00
#2
0Z
0S
0U
1X
1\
1]
0%"
0#"
0}
0L"
0""
0~
0|
0(
0b"
0`"
0^"
0\"
0Z"
0X"
0V"
b0 ,
b0 6
b0 d"
0T"
0R"
b0 5
0P"
10
11
#3
00
#4
10
01
1/
#5
00
#6
10
11
#7
00
#8
10
01
0/
#9
00
#10
10
11
#11
00
#12
0`
0g
0n
0u
0;
0B
0I
0P
1d
1k
1r
18
1?
1F
1M
1V
0e
0l
0s
09
0@
0G
0N
0W
1J"
1I"
1H"
1C"
1@"
1?"
1>"
1="
1:"
19"
16"
15"
14"
1/"
1,"
1+"
1*"
1)"
1$"
1!"
b11111111101010101011101100100010 .
b11111111101010101011101100100010 2
b11111111101010101011101100100010 7
b11111111101010101011101100100010 e"
1+
10
01
1/
#13
00
#14
10
11
#15
00
#16
10
01
0/
#17
00
#18
10
11
#19
00
#20
1I
0M
1S"
0U"
1W"
1Y"
1["
1]"
1_"
1a"
1O"
0^
1("
0-"
12"
17"
1<"
1A"
1F"
b11111101 {
1K"
b1 z
1M"
1_
1N
1y
0[
0J"
0I"
1G"
1E"
1D"
0@"
0?"
0="
1;"
0:"
06"
05"
13"
11"
10"
0,"
0+"
0*"
0)"
1&"
0!"
b11111101010101010100010010001000 .
b11111101010101010100010010001000 2
b11111101010101010100010010001000 7
b11111101010101010100010010001000 e"
1*
10
01
1/
#21
00
#22
0Y"
0]"
0a"
07"
0A"
b1010101 {
0K"
1;
1n
1`
1Q
1C
1v
1h
0V
0F
0?
08
0r
0k
0d
1Q"
0T
0D
0w
0i
1W
1G
1@
19
1s
1l
1e
1N"
0O"
1U
b10 z
0M"
0X
0]
1L"
1""
1~
1|
1(
1b"
1`"
1^"
1\"
1Z"
1X"
b11111101 ,
b11111101 6
b11111101 d"
1T"
b1 5
1P"
b1 4
1)
b11111101 -
b11111101 3
b11111101 c"
10
11
#23
00
#24
0S"
0["
0("
b1000100 {
0<"
1P
1u
0Q
0v
0E
0j
1T
1D
1w
1i
1O"
b11 z
1M"
1Z
0U
1]
0\
0L"
0""
0~
0|
1%"
1#"
1}
b10 4
b1010101 -
b1010101 3
b1010101 c"
0P"
b10 5
1R"
0Z"
0^"
b1010101 ,
b1010101 6
b1010101 d"
0b"
10
01
0/
#25
00
#26
1Y"
1a"
0W"
0_"
17"
1K"
02"
b10001000 {
0F"
0;
0`
0Q"
1B
1g
0N"
1?
1d
0C
0h
1^
0A
0f
0_
1E
1j
0O"
1S
b0 z
0M"
0Z
0]
1L"
1""
1~
1|
0\"
b1000100 ,
b1000100 6
b1000100 d"
0T"
b11 5
1P"
b11 4
b1000100 -
b1000100 3
b1000100 c"
10
11
#27
00
#28
1_"
0]"
0["
1W"
0U"
0S"
1F"
0A"
0<"
12"
0-"
b11001100 {
0("
0J
0<
0v
0o
0a
0^
0g
1n
1u
0B
1I
1P
1A
1f
1_
1T
1K
1=
1w
1p
1b
0G
0@
0l
0e
1k
0r
08
1F
0M
0Q
1O"
0S
b1 z
1M"
0U
1X
1m
1t
1:
1H
1O
1R
1]
1\
0L"
0""
0~
0|
0%"
0#"
0}
1J"
1I"
0E"
0D"
1B"
1@"
1?"
0>"
1="
09"
18"
16"
15"
01"
00"
1."
1,"
1+"
1)"
1'"
0$"
b0 4
b10001000 -
b10001000 3
b10001000 c"
0P"
b0 5
0R"
0X"
1Z"
0`"
b10001000 ,
b10001000 6
b10001000 d"
1b"
b11001100101110111010101011111111 .
b11001100101110111010101011111111 2
b11001100101110111010101011111111 7
b11001100101110111010101011111111 e"
10
01
1/
#29
00
#30
1S"
1U"
1["
1]"
0W"
0_"
1("
1-"
1<"
1A"
02"
b10111011 {
0F"
0P
0I
0u
0n
1B
1g
1Q
1J
1<
1v
1o
1a
0F
0?
0k
0d
1Q"
0T
0K
0=
0w
0p
0b
1G
1@
1l
1e
1N"
0O"
1U
b10 z
0M"
0X
0]
1L"
1""
1~
1|
1`"
b11001100 ,
b11001100 6
b11001100 d"
1X"
b1 5
1P"
b1 4
b11001100 -
b11001100 3
b11001100 c"
10
11
#31
00
#32
0S"
0["
0("
b10101010 {
0<"
1P
1u
0Q
0v
0L
0>
0q
0c
1T
1K
1=
1w
1p
1b
1O"
b11 z
1M"
1Z
0U
1]
0\
0L"
0""
0~
0|
1%"
1#"
1}
b10 4
b10111011 -
b10111011 3
b10111011 c"
0P"
b10 5
1R"
1T"
1V"
0X"
1\"
1^"
b10111011 ,
b10111011 6
b10111011 d"
0`"
10
01
0/
#33
00
#34
1S"
1W"
1["
1_"
1("
12"
1<"
b11111111 {
1F"
0P
0B
0u
0g
0Q"
0N"
1Q
1M
1F
1?
18
1r
1k
1d
0J
0<
0o
0a
1^
0R
0O
0H
0A
0:
0t
0m
0f
0_
1L
1>
1q
1c
0O"
1S
b0 z
0M"
0Z
0]
1L"
1""
1~
1|
0\"
b10101010 ,
b10101010 6
b10101010 d"
0T"
b11 5
1P"
b11 4
b10101010 -
b10101010 3
b10101010 c"
10
11
#35
00
#36
1_"
1]"
1["
1W"
0U"
1S"
1F"
1A"
1<"
12"
0-"
b11111101 {
1("
0C
0v
0h
1V
0^
0g
0n
0u
0B
1I
0P
1A
1f
1_
1T
1D
1w
1i
0W
0G
0@
09
0s
0l
0e
1k
1r
18
1F
0M
0Q
1O"
0S
b1 z
1M"
0U
1X
1m
1t
1:
1H
1O
1R
1]
1\
0L"
0""
0~
0|
0%"
0#"
0}
0J"
0I"
1E"
1D"
0B"
0@"
0?"
1>"
0="
19"
08"
06"
05"
11"
10"
0."
0,"
0+"
0)"
0'"
1$"
b0 4
b11111111 -
b11111111 3
b11111111 c"
0P"
b0 5
0R"
1T"
1X"
1\"
b11111111 ,
b11111111 6
b11111111 d"
1`"
b11111101010101010100010010001000 .
b11111101010101010100010010001000 2
b11111101010101010100010010001000 7
b11111101010101010100010010001000 e"
10
01
1/
#37
00
#38
0Y"
0]"
0a"
07"
0A"
b1010101 {
0K"
1;
1n
1`
1Q
1C
1v
1h
0V
0F
0?
08
0r
0k
0d
1Q"
0T
0D
0w
0i
1W
1G
1@
19
1s
1l
1e
1N"
0O"
1U
b10 z
0M"
0X
0]
1L"
1""
1~
1|
b11111101 ,
b11111101 6
b11111101 d"
0V"
b1 5
1P"
b1 4
b11111101 -
b11111101 3
b11111101 c"
10
11
#39
00
#40
0S"
0["
0("
b1000100 {
0<"
1P
1u
0Q
0v
0E
0j
1T
1D
1w
1i
1O"
b11 z
1M"
1Z
0U
1]
0\
0L"
0""
0~
0|
1%"
1#"
1}
b10 4
b1010101 -
b1010101 3
b1010101 c"
0P"
b10 5
1R"
0Z"
0^"
b1010101 ,
b1010101 6
b1010101 d"
0b"
10
01
0/
#41
00
#42
1Y"
1a"
0W"
0_"
17"
1K"
02"
b10001000 {
0F"
0;
0`
0Q"
1B
1g
0N"
1?
1d
0C
0h
1^
0A
0f
0_
1E
1j
0O"
1S
b0 z
0M"
0Z
0]
1L"
1""
1~
1|
0\"
b1000100 ,
b1000100 6
b1000100 d"
0T"
b11 5
1P"
b11 4
b1000100 -
b1000100 3
b1000100 c"
10
11
#43
00
#44
1;
1B
0I
0?
0C
0v
0o
1M
1`
1g
1n
0u
1A
1D
1w
1p
0N
09
0d
0k
0r
18
0Y"
0a"
0S
07"
b0 {
0K"
0U
1X
1f
1m
1t
1:
0y
1]
1\
1[
0L"
0""
0~
0|
0%"
0#"
0}
0H"
0G"
0E"
0C"
1B"
1@"
0>"
1="
1:"
18"
04"
0/"
1+"
1*"
0&"
0$"
b0 4
b10001000 -
b10001000 3
b10001000 c"
0P"
b0 5
0R"
0X"
1Z"
0`"
b10001000 ,
b10001000 6
b10001000 d"
1b"
b10010001101000101011001111000 .
b10010001101000101011001111000 2
b10010001101000101011001111000 7
b10010001101000101011001111000 e"
0*
10
01
1/
#45
00
#46
0(
0b"
b0 ,
b0 6
b0 d"
0Z"
b0 -
b0 3
b0 c"
0)
10
11
#47
00
#48
10
01
0/
#49
00
#50
10
11
#51
00
#52
0`
0n
0;
0P
1d
1r
1?
1V
0e
0s
0@
0W
1J"
1I"
1H"
1G"
1E"
0@"
1>"
0;"
08"
16"
15"
14"
1."
0+"
1)"
1$"
1!"
b10111011110011001101110111101110 .
b10111011110011001101110111101110 2
b10111011110011001101110111101110 7
b10111011110011001101110111101110 e"
10
01
1/
